{
    "data":[
        {
            "id":1,
            "titulo":"Titulo1",
            "body":"<br>Probando <br> so<br>adas"
        },
        {
            "id":2,
            "titulo":"Titulo2",
            "body":"Tambin <br>Probando <br> so<br>adas"
        }
    ]
}